…
Using `for` loops

``` r
output = vector("list", length = 500)

for (i in 1:500) {
  
  output[[i]] = sim_regression(n_subj = 30)
}

output |> 
  bind_rows()
```

    ## # A tibble: 500 × 2
    ##    beta0_hat beta1_hat
    ##        <dbl>     <dbl>
    ##  1      2.98      2.31
    ##  2      1.82      3.18
    ##  3      1.78      3.12
    ##  4      2.16      3.01
    ##  5      1.88      3.00
    ##  6      2.30      2.72
    ##  7      1.77      3.08
    ##  8      2.24      2.90
    ##  9      1.92      3.04
    ## 10      2.02      2.88
    ## # ℹ 490 more rows
…
